JogoEncontreAFraude\Binaries\Win64\JogoEncontreAFraude.exe	2017-11-24T20:20:10.899Z
JogoEncontreAFraude.exe	2017-11-24T20:22:26.985Z
Engine\Extras\Redist\en-us\UE4PrereqSetup_x64.exe	2017-10-26T15:18:52.730Z
Engine\Binaries\ThirdParty\NVIDIA\NVaftermath\Win64\GFSDK_Aftermath_Lib.dll	2017-10-26T15:15:19.428Z
Engine\Binaries\ThirdParty\Windows\DirectX\x64\WinPixEventRuntime.dll	2017-10-26T15:15:24.705Z
Engine\Binaries\ThirdParty\PhysX\Win64\VS2015\PxFoundationPROFILE_x64.dll	2017-10-26T15:15:21.711Z
Engine\Binaries\ThirdParty\PhysX\Win64\VS2015\PxPvdSDKPROFILE_x64.dll	2017-10-26T15:15:21.716Z
Engine\Binaries\ThirdParty\PhysX\Win64\VS2015\PhysX3PROFILE_x64.dll	2017-10-26T15:15:21.705Z
Engine\Binaries\ThirdParty\PhysX\Win64\VS2015\PhysX3CookingPROFILE_x64.dll	2017-10-26T15:15:21.692Z
Engine\Binaries\ThirdParty\PhysX\Win64\VS2015\PhysX3CommonPROFILE_x64.dll	2017-10-26T15:15:21.687Z
Engine\Binaries\ThirdParty\PhysX\Win64\VS2015\APEX_ClothingPROFILE_x64.dll	2017-10-26T15:15:21.552Z
Engine\Binaries\ThirdParty\PhysX\Win64\VS2015\APEX_DestructiblePROFILE_x64.dll	2017-10-26T15:15:21.599Z
Engine\Binaries\ThirdParty\PhysX\Win64\VS2015\APEX_LegacyPROFILE_x64.dll	2017-10-26T15:15:21.641Z
Engine\Binaries\ThirdParty\PhysX\Win64\VS2015\ApexFrameworkPROFILE_x64.dll	2017-10-26T15:15:21.652Z
Engine\Binaries\ThirdParty\PhysX\Win64\VS2015\NvClothPROFILE_x64.dll	2017-10-26T15:15:21.660Z
Engine\Binaries\ThirdParty\Ogg\Win64\VS2015\libogg_64.dll	2017-10-26T15:15:19.458Z
Engine\Binaries\ThirdParty\Vorbis\Win64\VS2015\libvorbis_64.dll	2017-10-26T15:15:24.676Z
Engine\Binaries\ThirdParty\Vorbis\Win64\VS2015\libvorbisfile_64.dll	2017-10-26T15:15:24.679Z
Engine\Binaries\ThirdParty\Oculus\OculusMobile\SDK_1_0_3\Win64\VrApiShim.dll	2017-10-26T15:15:19.451Z
Engine\Binaries\ThirdParty\OpenVR\OpenVRv1_0_6\Win64\openvr_api.dll	2017-10-26T15:15:19.511Z
Engine\Build\Build.version	2017-10-26T15:16:32.027Z
