"","nmMesoRegiaoAbrev","nmMicroRegiaoAbrev","fxPopulacional2010","nrPopulacao2010","nrPopUrbana2010","nrPopRural2010","percPopUrbana","percPopRural","vlAreaTerritorial","nrQuantidade"
"ABATIA","NPioneiro","CornProcopio","5-Pop<=10000","7764","5732","2032","74","26","227.9","231766"
"ADRIANOPOLIS","Curitiba","CerroAzul","5-Pop<=10000","6376","2060","4316","32","68","1341.34","324497"
"AGUDOSDOSUL","Curitiba","RioNegro","5-Pop<=10000","8270","2822","5448","34","66","191.29","187057"
"ALMIRANTETAMANDARE","Curitiba","Curitiba","3-Pop>50000<=250000","103204","98892","4312","96","4","191.12","286539"
"ALTAMIRADOPARANA","CentroOcid","Goioere","5-Pop<=10000","4306","2135","2171","50","50","387.32","231138"
"ALTONIA","Noroeste","Umuarama","4-Pop>10000<=50000","20516","15094","5422","74","26","729.32","383620"
"ALTOPARAISO","Noroeste","Umuarama","5-Pop<=10000","3206","2135","2171","50","50","387.32","252929"
"ALTOPARANA","Noroeste","Paranavai","4-Pop>10000<=50000","13663","11221","2442","82","18","407.64","286846"
"ALTOPIQUIRI","Noroeste","Umuarama","4-Pop>10000<=50000","10179","8376","1803","82","18","444.01","233157"
"ALVORADADOSUL","NCentral","Porecatu","4-Pop>10000<=50000","10283","7338","2945","71","29","417.91","400101"
"AMAPORA","Noroeste","Paranavai","5-Pop<=10000","5443","4330","1113","80","20","384.84","191841"
"AMPERE","Sudoeste","Capanema","4-Pop>10000<=50000","17308","13257","4051","77","23","296.76","422108"
"ANAHY","Oeste","Cascavel","5-Pop<=10000","2874","2108","766","73","27","102.34","268680"
"ANDIRA","NPioneiro","CornProcopio","4-Pop>10000<=50000","20610","19351","1259","94","6","233.27","310861"
"ANGULO","NCentral","Astorga","5-Pop<=10000","2859","2253","606","79","21","105.94","75822"
"ANTONINA","Curitiba","Paranagua","4-Pop>10000<=50000","18891","16063","2828","85","15","876.56","170772"
"ANTONIOOLINTO","Sudeste","SMateusdoSul","5-Pop<=10000","7351","687","6664","9","91","466.64","323625"
"APUCARANA","NCentral","Apucarana","3-Pop>50000<=250000","120919","114098","6821","94","6","555.4","524649"
"ARAPONGAS","NCentral","Apucarana","3-Pop>50000<=250000","104150","101851","2299","98","2","381.62","426051"
"ARAPUA","NCentral","Ivaipora","5-Pop<=10000","3561","1334","2227","37","63","218.04","222302"
"ARARUNA","CentroOcid","CampoMourao","4-Pop>10000<=50000","13419","10475","2944","78","22","491.08","254836"
"ARAUCARIA","Curitiba","Curitiba","3-Pop>50000<=250000","119123","110205","8918","93","7","471.34","649996"
"ARIRANHADOIVAI","NCentral","Ivaipora","5-Pop<=10000","2453","904","1549","37","63","237.59","250502"
"ASSAI","NPioneiro","Assai","4-Pop>10000<=50000","16354","13587","2767","83","17","440.02","352660"
"ASSISCHATEAUBRIAND","Oeste","Toledo","4-Pop>10000<=50000","33025","29013","4012","88","12","966.16","532020"
"ASTORGA","NCentral","Astorga","4-Pop>10000<=50000","24698","22559","2139","91","9","436.0","634932"
"ATALAIA","NCentral","Astorga","5-Pop<=10000","3913","3347","566","86","14","137.73","102482"
"BALSANOVA","Curitiba","Curitiba","4-Pop>10000<=50000","11300","6870","4430","61","39","344.2","172745"
"BANDEIRANTES","NPioneiro","CornProcopio","4-Pop>10000<=50000","32184","28384","3800","88","12","446.31","539349"
"BARBOSAFERRAZ","CentroOcid","CampoMourao","4-Pop>10000<=50000","12656","9581","3075","76","24","531.97","231745"
"BARRACAO","Sudoeste","FrancBeltrao","5-Pop<=10000","9735","7008","2727","72","28","162.81","290631"
"BARRADOJACARE","NPioneiro","Jacarezinho","5-Pop<=10000","2727","1851","876","68","32","115.73","207200"
"BELAVISTADACAROBA","Sudoeste","Capanema","5-Pop<=10000","3945","1041","2904","26","74","149.14","231305"
"BELAVISTADOPARAISO","NCentral","Porecatu","4-Pop>10000<=50000","15079","14196","883","94","6","245.48","84377"
"BITURUNA","Sudeste","UniaoVitoria","4-Pop>10000<=50000","15880","9899","5981","62","38","1218.84","598658"
"BOAESPERANCA","CentroOcid","Goioere","5-Pop<=10000","4568","2640","1928","58","42","311.23","213485"
"BOAESPERANCADOIGUACU","Sudoeste","FrancBeltrao","5-Pop<=10000","2764","953","1811","34","66","150.42","200093"
"BOAVENTURADESAOROQUE","Centro-Sul","Pitanga","5-Pop<=10000","6554","1544","5010","24","76","621.32","264833"
"BOAVISTADAAPARECIDA","Oeste","Cascavel","5-Pop<=10000","7911","4900","3011","62","38","256.17","434176"
"BOCAIUVADOSUL","Curitiba","Curitiba","4-Pop>10000<=50000","10987","5128","5859","47","53","825.76","129904"
"BOMJESUSDOSUL","Sudoeste","FrancBeltrao","5-Pop<=10000","3796","933","2863","25","75","174.69","233130"
"BOMSUCESSO","NCentral","Faxinal","5-Pop<=10000","6561","5329","1232","81","19","321.01","173388"
"BOMSUCESSODOSUL","Sudoeste","PatoBranco","5-Pop<=10000","3293","1581","1712","48","52","195.57","283642"
"BORRAZOPOLIS","NCentral","Faxinal","5-Pop<=10000","7878","5809","2069","74","26","337.33","196085"
"BRAGANEY","Oeste","Cascavel","5-Pop<=10000","5735","3417","2318","60","40","342.76","363117"
"BRASILANDIADOSUL","Noroeste","Umuarama","5-Pop<=10000","3209","2180","1029","68","32","297.25","260896"
"CAFEARA","NCentral","Astorga","5-Pop<=10000","2695","2195","500","81","19","184.74","119796"
"CAFELANDIA","Oeste","Cascavel","4-Pop>10000<=50000","14662","12348","2314","84","16","271.53","360370"
"CAFEZALDOSUL","Noroeste","Umuarama","5-Pop<=10000","4290","3325","965","78","22","328.6","240656"
"CALIFORNIA","NCentral","Apucarana","5-Pop<=10000","8069","6028","2041","75","25","142.1","143378"
"CAMBARA","NPioneiro","Jacarezinho","4-Pop>10000<=50000","23886","22365","1521","94","6","365.1","381040"
"CAMBE","NCentral","Londrina","3-Pop>50000<=250000","96733","92952","3781","96","4","496.13","410803"
"CAMBIRA","NCentral","Apucarana","5-Pop<=10000","7236","5475","1761","76","24","164.08","376545"
"CAMPINADALAGOA","CentroOcid","Goioere","4-Pop>10000<=50000","15394","12557","2837","82","18","797.6","701532"
"CAMPINADOSIMAO","Centro-Sul","Guarapuava","5-Pop<=10000","4076","1388","2688","34","66","451.32","219898"
"CAMPINAGRANDEDOSUL","Curitiba","Curitiba","4-Pop>10000<=50000","38769","31961","6808","82","18","540.64","733810"
"CAMPOBONITO","Oeste","Cascavel","5-Pop<=10000","4407","2580","1827","59","41","429.31","216825"
"CAMPODOTENENTE","Curitiba","RioNegro","5-Pop<=10000","7125","4194","2931","59","41","304.3","269736"
"CAMPOLARGO","Curitiba","Curitiba","3-Pop>50000<=250000","112377","94171","18206","84","16","1282.57","492676"
"CAMPOMAGRO","Curitiba","Curitiba","4-Pop>10000<=50000","24843","19547","5296","79","21","278.23","194648"
"CAMPOMOURAO","CentroOcid","CampoMourao","3-Pop>50000<=250000","87194","82676","4518","95","5","763.64","342581"
"CANDIDODEABREU","NCentral","Ivaipora","4-Pop>10000<=50000","16655","4752","11903","29","71","1515.25","644066"
"CANDOI","Centro-Sul","Guarapuava","4-Pop>10000<=50000","14983","7026","7957","47","53","1509.06","808944"
"CANTAGALO","Centro-Sul","Guarapuava","4-Pop>10000<=50000","12952","8509","4443","66","34","583.52","462613"
"CAPANEMA","Sudoeste","Capanema","4-Pop>10000<=50000","18526","11150","7376","60","40","419.41","455426"
"CAPITAOLEONIDASMARQUES","Oeste","Cascavel","4-Pop>10000<=50000","14970","11490","3480","77","23","274.9","410001"
"CARAMBEI","CentroOr","PontaGrossa","4-Pop>10000<=50000","19163","13918","5245","73","27","645.43","246001"
"CARLOPOLIS","NPioneiro","WenceslauBraz","4-Pop>10000<=50000","13706","9353","4353","68","32","449.08","272686"
"CASCAVEL","Oeste","Cascavel","2-Pop>250000<=1000000","286205","270049","16156","94","6","2091.41","1500659"
"CASTRO","CentroOr","PontaGrossa","3-Pop>50000<=250000","67084","49266","17818","73","27","2533.25","656188"
"CATANDUVAS","Oeste","Cascavel","4-Pop>10000<=50000","10202","5342","4860","52","48","589.61","216492"
"CENTENARIODOSUL","NCentral","Astorga","4-Pop>10000<=50000","11190","9334","1856","83","17","371.01","203024"
"CERROAZUL","Curitiba","CerroAzul","4-Pop>10000<=50000","16938","4808","12130","28","72","1341.33","448588"
"CEUAZUL","Oeste","FozdoIguacu","4-Pop>10000<=50000","11032","8387","2645","76","24","1180.17","280546"
"CHOPINZINHO","Sudoeste","PatoBranco","4-Pop>10000<=50000","19679","12508","7171","64","36","959.18","522201"
"CIANORTE","Noroeste","Cianorte","3-Pop>50000<=250000","69958","62282","7676","89","11","809.24","837490"
"CIDADEGAUCHA","Noroeste","Cianorte","4-Pop>10000<=50000","11062","9176","1886","83","17","403.64","216644"
"CLEVELANDIA","Centro-Sul","Palmas","4-Pop>10000<=50000","17240","14758","2482","86","14","703.11","229599"
"COLOMBO","Curitiba","Curitiba","3-Pop>50000<=250000","212967","203203","9764","95","5","197.81","635565"
"COLORADO","NCentral","Astorga","4-Pop>10000<=50000","22345","21005","1340","94","6","403.75","460409"
"CONGONHINHAS","NPioneiro","CornProcopio","5-Pop<=10000","8279","4834","3445","58","42","532.33","249963"
"CONSELHEIROMAIRINCK","NPioneiro","Ibaiti","5-Pop<=10000","3636","2515","1121","69","31","204.5","264433"
"CONTENDA","Curitiba","Curitiba","4-Pop>10000<=50000","15891","9231","6660","58","42","300.57","320483"
"CORBELIA","Oeste","Cascavel","4-Pop>10000<=50000","16312","13976","2336","86","14","528.72","352514"
"CORNELIOPROCOPIO","NPioneiro","CornProcopio","4-Pop>10000<=50000","46928","44308","2620","94","6","637.95","387211"
"CORONELDOMINGOSSOARES","Centro-Sul","Palmas","5-Pop<=10000","7238","1753","5485","24","76","1557.95","361539"
"CORONELVIVIDA","Sudoeste","PatoBranco","4-Pop>10000<=50000","21749","15445","6304","71","29","683.26","148658"
"CORUMBATAIDOSUL","CentroOcid","CampoMourao","5-Pop<=10000","4002","2127","1875","53","47","169.53","253220"
"CRUZEIRODOIGUACU","Sudoeste","FrancBeltrao","5-Pop<=10000","4278","2623","1655","61","39","160.58","211755"
"CRUZEIRODOOESTE","Noroeste","Umuarama","4-Pop>10000<=50000","20416","17667","2749","87","13","781.96","394291"
"CRUZEIRODOSUL","Noroeste","Paranavai","5-Pop<=10000","4563","3404","1159","75","25","259.15","232630"
"CRUZMACHADO","Sudeste","UniaoVitoria","4-Pop>10000<=50000","18040","6057","11983","34","66","1477.38","463579"
"CRUZMALTINA","NCentral","Faxinal","5-Pop<=10000","3162","1503","1659","48","52","305.36","204721"
"CURITIBA","Curitiba","Curitiba","1-Pop>1000000","1751907","1751907","0","100","0","435.5","3329757"
"CURIUVA","NPioneiro","Ibaiti","4-Pop>10000<=50000","13923","9573","4350","69","31","573.47","214881"
"DIAMANTEDONORTE","Noroeste","Paranavai","5-Pop<=10000","5516","4551","965","83","17","243.26","101787"
"DIAMANTEDOOESTE","Oeste","Toledo","5-Pop<=10000","5027","2561","2466","51","49","309.15","255345"
"DIAMANTEDOSUL","Oeste","Cascavel","5-Pop<=10000","3510","1405","2105","40","60","345.99","208480"
"DOISVIZINHOS","Sudoeste","FrancBeltrao","4-Pop>10000<=50000","36179","28095","8084","78","22","419.02","375837"
"DOURADINA","Noroeste","Umuarama","5-Pop<=10000","7445","5236","2209","70","30","420.26","253722"
"DOUTORCAMARGO","NCentral","Florai","5-Pop<=10000","5828","5109","719","88","12","118.24","117407"
"DOUTORULYSSES","Curitiba","CerroAzul","5-Pop<=10000","5727","929","4798","16","84","781.45","203530"
"ENEASMARQUES","Sudoeste","FrancBeltrao","5-Pop<=10000","6103","2126","3977","35","65","193.47","285805"
"ENGENHEIROBELTRAO","CentroOcid","CampoMourao","4-Pop>10000<=50000","13906","12278","1628","88","12","469.43","320318"
"ENTRERIOSDOOESTE","Oeste","Toledo","5-Pop<=10000","3926","2642","1284","67","33","120.33","122217"
"ESPERANCANOVA","Noroeste","Umuarama","5-Pop<=10000","1970","752","1218","38","62","142.36","242025"
"ESPIGAOALTODOIGUACU","Centro-Sul","Guarapuava","5-Pop<=10000","4677","1646","3031","35","65","320.87","354024"
"FAROL","CentroOcid","CampoMourao","5-Pop<=10000","3472","2018","1454","58","42","291.6","171300"
"FAXINAL","NCentral","Faxinal","4-Pop>10000<=50000","16314","12739","3575","78","22","713.68","570045"
"FAZENDARIOGRANDE","Curitiba","Curitiba","3-Pop>50000<=250000","81675","75928","5747","93","7","115.38","263622"
"FENIX","CentroOcid","CampoMourao","5-Pop<=10000","4802","3995","807","83","17","233.82","126479"
"FERNANDESPINHEIRO","Sudeste","Prudentopolis","5-Pop<=10000","5932","2094","3838","35","65","406.64","309273"
"FIGUEIRA","NPioneiro","Ibaiti","5-Pop<=10000","8293","7091","1202","86","14","129.91","240204"
"FLORAI","NCentral","Florai","5-Pop<=10000","5050","4472","578","89","11","190.65","134739"
"FLORDASERRADOSUL","Sudoeste","FrancBeltrao","5-Pop<=10000","4726","1644","3082","35","65","254.27","260365"
"FLORESTA","NCentral","Florai","5-Pop<=10000","5931","5470","461","92","8","162.01","173567"
"FLORESTOPOLIS","NCentral","Porecatu","4-Pop>10000<=50000","11222","10544","678","94","6","249.4","330682"
"FLORIDA","NCentral","Astorga","5-Pop<=10000","2543","2322","221","91","9","83.14","77218"
"FORMOSADOOESTE","Oeste","Toledo","5-Pop<=10000","7541","4970","2571","66","34","275.08","223296"
"FOZDOIGUACU","Oeste","FozdoIguacu","2-Pop>250000<=1000000","256088","253962","2126","99","1","610.21","617234"
"FOZDOJORDAO","Centro-Sul","Guarapuava","5-Pop<=10000","5420","3927","1493","72","28","233.64","228850"
"FRANCISCOALVES","Noroeste","Umuarama","5-Pop<=10000","6418","4234","2184","66","34","320.77","174519"
"FRANCISCOBELTRAO","Sudoeste","FrancBeltrao","3-Pop>50000<=250000","78943","67449","11494","85","15","731.74","880389"
"GENERALCARNEIRO","Sudeste","UniaoVitoria","4-Pop>10000<=50000","13669","9569","4100","70","30","1072.02","249763"
"GODOYMOREIRA","NCentral","Ivaipora","5-Pop<=10000","3337","1547","1790","46","54","132.47","200234"
"GOIOERE","CentroOcid","Goioere","4-Pop>10000<=50000","29018","25242","3776","87","13","566.03","443133"
"GOIOXIM","Centro-Sul","Guarapuava","5-Pop<=10000","7503","1756","5747","23","77","701.6","404379"
"GRANDESRIOS","NCentral","Ivaipora","5-Pop<=10000","6625","3560","3065","54","46","305.19","209612"
"GUAIRA","Oeste","Toledo","4-Pop>10000<=50000","30704","28206","2498","92","8","568.85","517429"
"GUAIRACA","Noroeste","Paranavai","5-Pop<=10000","6197","4959","1238","80","20","493.56","383133"
"GUAMIRANGA","Sudeste","Prudentopolis","5-Pop<=10000","7900","2236","5664","28","72","243.16","417279"
"GUAPIRAMA","NPioneiro","WenceslauBraz","5-Pop<=10000","3891","2900","991","75","25","189.03","166015"
"GUAPOREMA","Noroeste","Cianorte","5-Pop<=10000","2219","1281","938","58","42","200.76","114682"
"GUARACI","NCentral","Astorga","5-Pop<=10000","5227","4200","1027","80","20","212.31","190382"
"GUARANIACU","Oeste","Cascavel","4-Pop>10000<=50000","14582","7804","6778","54","46","1240.07","523621"
"GUARAPUAVA","Centro-Sul","Guarapuava","3-Pop>50000<=250000","167328","152993","14335","91","9","3177.6","611881"
"GUARAQUECABA","Curitiba","Paranagua","5-Pop<=10000","7871","2683","5188","34","66","2315.74","260949"
"GUARATUBA","Curitiba","Paranagua","4-Pop>10000<=50000","32095","28805","3290","90","10","1328.48","380982"
"HONORIOSERPA","Centro-Sul","Palmas","5-Pop<=10000","5955","1988","3967","33","67","503.68","219597"
"IBAITI","NPioneiro","Ibaiti","4-Pop>10000<=50000","28751","23116","5635","80","20","900.24","849143"
"IBEMA","Oeste","Cascavel","5-Pop<=10000","6066","4941","1125","81","19","150.04","121536"
"IBIPORA","NCentral","Londrina","4-Pop>10000<=50000","48198","45895","2303","95","5","298.87","335557"
"ICARAIMA","Noroeste","Umuarama","5-Pop<=10000","8839","6240","2599","71","29","693.69","311786"
"IGUATU","Oeste","Cascavel","5-Pop<=10000","2234","1438","796","64","36","107.47","181661"
"IMBAU","CentroOr","TelemacoBorba","4-Pop>10000<=50000","11274","7060","4214","63","37","330.16","255421"
"IMBITUVA","Sudeste","Prudentopolis","4-Pop>10000<=50000","28455","17888","10567","63","37","758.48","485"
"INACIOMARTINS","Centro-Sul","Guarapuava","4-Pop>10000<=50000","10943","6288","4655","57","43","936.6","292348"
"INAJA","Noroeste","Paranavai","5-Pop<=10000","2988","2761","227","92","8","194.38","116798"
"INDIANOPOLIS","Noroeste","Cianorte","5-Pop<=10000","4299","3147","1152","73","27","122.19","128455"
"IPIRANGA","Sudeste","Prudentopolis","4-Pop>10000<=50000","14150","4889","9261","35","65","926.96","349864"
"IPORA","Noroeste","Umuarama","4-Pop>10000<=50000","14981","11777","3204","79","21","651.33","386980"
"IRACEMADOOESTE","Oeste","Toledo","5-Pop<=10000","2578","2002","576","78","22","82.46","197357"
"IRATI","Sudeste","Irati","3-Pop>50000<=250000","56207","44932","11275","80","20","995.29","659600"
"IRETAMA","CentroOcid","CampoMourao","4-Pop>10000<=50000","10622","6187","4435","58","42","568.33","506630"
"ITAGUAJE","NCentral","Astorga","5-Pop<=10000","4568","3636","932","80","20","190.62","130396"
"ITAIPULANDIA","Oeste","FozdoIguacu","5-Pop<=10000","9026","4741","4285","53","47","332.32","273402"
"ITAMBARACA","NPioneiro","CornProcopio","5-Pop<=10000","6759","5080","1679","75","25","206.94","321813"
"ITAMBE","NCentral","Florai","5-Pop<=10000","5979","5674","305","95","5","244.44","121436"
"ITAPEJARADOESTE","Sudoeste","PatoBranco","4-Pop>10000<=50000","10531","6987","3544","66","34","254.21","459831"
"ITAPERUCU","Curitiba","Curitiba","4-Pop>10000<=50000","23887","19956","3931","84","16","320.16","242427"
"ITAUNADOSUL","Noroeste","Paranavai","5-Pop<=10000","3583","2549","1034","71","29","128.23","196093"
"IVAI","Sudeste","Prudentopolis","4-Pop>10000<=50000","12815","4629","8186","36","64","609.54","236337"
"IVAIPORA","NCentral","Ivaipora","4-Pop>10000<=50000","31816","27438","4378","86","14","434.67","496429"
"IVATE","Noroeste","Umuarama","5-Pop<=10000","7514","5233","2281","70","30","411.57","253518"
"IVATUBA","NCentral","Florai","5-Pop<=10000","3010","2294","716","76","24","95.08","103940"
"JABOTI","NPioneiro","Ibaiti","5-Pop<=10000","4902","3027","1875","62","38","138.97","153197"
"JACAREZINHO","NPioneiro","Jacarezinho","4-Pop>10000<=50000","39121","34774","4347","89","11","603.12","318032"
"JAGUAPITA","NCentral","Astorga","4-Pop>10000<=50000","12225","10380","1845","85","15","478.46","259832"
"JAGUARIAIVA","CentroOr","Jaguariaiva","4-Pop>10000<=50000","32606","28041","4565","86","14","1456.41","613934"
"JANDAIADOSUL","NCentral","Apucarana","4-Pop>10000<=50000","20269","18331","1938","90","10","187.82","588795"
"JANIOPOLIS","CentroOcid","Goioere","5-Pop<=10000","6532","4038","2494","62","38","337.69","210083"
"JAPIRA","NPioneiro","Ibaiti","5-Pop<=10000","4903","2733","2170","56","44","189.08","236049"
"JAPURA","Noroeste","Cianorte","5-Pop<=10000","8549","7619","930","89","11","166.52","165743"
"JARDIMALEGRE","NCentral","Ivaipora","4-Pop>10000<=50000","12324","7171","5153","58","42","410.78","226190"
"JARDIMOLINDA","Noroeste","Paranavai","5-Pop<=10000","1409","1001","408","71","29","128.48","197097"
"JATAIZINHO","NPioneiro","Assai","4-Pop>10000<=50000","11875","11053","822","93","7","161.98","245798"
"JESUITAS","Oeste","Toledo","5-Pop<=10000","9001","6070","2931","67","33","249.21","223805"
"JOAQUIMTAVORA","NPioneiro","WenceslauBraz","4-Pop>10000<=50000","10736","8220","2516","77","23","289.34","203969"
"JUNDIAIDOSUL","NPioneiro","Jacarezinho","5-Pop<=10000","3433","1976","1457","58","42","319.75","173550"
"JURANDA","CentroOcid","Goioere","5-Pop<=10000","7641","5839","1802","76","24","345.76","293247"
"JUSSARA","Noroeste","Cianorte","5-Pop<=10000","6610","5924","686","90","10","207.71","125982"
"KALORE","NCentral","Faxinal","5-Pop<=10000","4506","3218","1288","71","29","193.91","272417"
"LAPA","Curitiba","Lapa","4-Pop>10000<=50000","44932","27222","17710","61","39","2097.76","473645"
"LARANJAL","Centro-Sul","Pitanga","5-Pop<=10000","6360","2031","4329","32","68","558.02","273580"
"LARANJEIRASDOSUL","Centro-Sul","Guarapuava","4-Pop>10000<=50000","30777","25031","5746","81","19","673.32","536456"
"LEOPOLIS","NPioneiro","CornProcopio","5-Pop<=10000","4145","2401","1744","58","42","345.96","228079"
"LIDIANOPOLIS","NCentral","Ivaipora","5-Pop<=10000","3973","2046","1927","51","49","152.54","152095"
"LINDOESTE","Oeste","Cascavel","5-Pop<=10000","5361","2384","2977","44","56","361.0","133769"
"LOANDA","Noroeste","Paranavai","4-Pop>10000<=50000","21201","19274","1927","91","9","719.86","328066"
"LOBATO","NCentral","Astorga","5-Pop<=10000","4401","4105","296","93","7","239.81","99641"
"LONDRINA","NCentral","Londrina","2-Pop>250000<=1000000","506701","493520","13181","97","3","1656.61","1574631"
"LUIZIANA","CentroOcid","CampoMourao","5-Pop<=10000","7315","4756","2559","65","35","908.79","329611"
"LUNARDELLI","NCentral","Ivaipora","5-Pop<=10000","5160","3594","1566","70","30","198.93","193107"
"LUPIONOPOLIS","NCentral","Astorga","5-Pop<=10000","4592","4079","513","89","11","120.2","155352"
"MALLET","Sudeste","Irati","4-Pop>10000<=50000","12973","7570","5403","58","42","724.48","348548"
"MAMBORE","CentroOcid","CampoMourao","4-Pop>10000<=50000","13961","8984","4977","64","36","782.91","450786"
"MANDAGUACU","NCentral","Astorga","4-Pop>10000<=50000","19781","17585","2196","89","11","293.44","428549"
"MANDAGUARI","NCentral","Maringa","4-Pop>10000<=50000","32658","30934","1724","95","5","336.33","377901"
"MANDIRITUBA","Curitiba","Curitiba","4-Pop>10000<=50000","22220","7414","14806","33","67","381.4","675309"
"MANFRINOPOLIS","Sudoeste","FrancBeltrao","5-Pop<=10000","3127","652","2475","21","79","215.97","240470"
"MANGUEIRINHA","Centro-Sul","Palmas","4-Pop>10000<=50000","17048","8394","8654","49","51","1073.32","1051632"
"MANOELRIBAS","NCentral","Ivaipora","4-Pop>10000<=50000","13169","6805","6364","52","48","571.29","288705"
"MARECHALCANDIDORONDON","Oeste","Toledo","4-Pop>10000<=50000","46819","39147","7672","84","16","748.29","626251"
"MARIAHELENA","Noroeste","Umuarama","5-Pop<=10000","5956","3994","1962","67","33","483.67","261726"
"MARIALVA","NCentral","Maringa","4-Pop>10000<=50000","31959","25792","6167","81","19","475.13","478523"
"MARILANDIADOSUL","NCentral","Apucarana","5-Pop<=10000","8863","6314","2549","71","29","383.15","237752"
"MARILENA","Noroeste","Paranavai","5-Pop<=10000","6858","4984","1874","73","27","215.77","269192"
"MARILUZ","Noroeste","Umuarama","4-Pop>10000<=50000","10224","8467","1757","83","17","428.33","266431"
"MARINGA","NCentral","Maringa","2-Pop>250000<=1000000","357077","350653","6424","98","2","486.44","2451836"
"MARIOPOLIS","Sudoeste","PatoBranco","5-Pop<=10000","6268","4469","1799","71","29","230.77","238898"
"MARIPA","Oeste","Toledo","5-Pop<=10000","5684","3262","2422","57","43","287.05","195673"
"MARMELEIRO","Sudoeste","FrancBeltrao","4-Pop>10000<=50000","13900","8824","5076","63","37","388.87","389213"
"MARQUINHO","Centro-Sul","Guarapuava","5-Pop<=10000","4981","524","4457","11","89","510.31","401042"
"MARUMBI","NCentral","Faxinal","5-Pop<=10000","4603","3141","1462","68","32","210.42","251440"
"MATELANDIA","Oeste","FozdoIguacu","4-Pop>10000<=50000","16078","11613","4465","72","28","642.03","316903"
"MATINHOS","Curitiba","Paranagua","4-Pop>10000<=50000","29428","29279","149","99","1","116.55","376500"
"MATORICO","Centro-Sul","Pitanga","5-Pop<=10000","3818","957","2861","25","75","396.59","329340"
"MAUADASERRA","NCentral","Apucarana","5-Pop<=10000","8555","7013","1542","82","18","109.06","258717"
"MEDIANEIRA","Oeste","FozdoIguacu","4-Pop>10000<=50000","41817","37390","4427","89","11","325.17","272948"
"MERCEDES","Oeste","Toledo","5-Pop<=10000","5046","2439","2607","48","52","199.09","324906"
"MIRADOR","Noroeste","Paranavai","5-Pop<=10000","2327","1579","748","68","32","221.98","191032"
"MIRASELVA","NCentral","Porecatu","5-Pop<=10000","1862","1430","432","77","23","87.84","164631"
"MISSAL","Oeste","FozdoIguacu","4-Pop>10000<=50000","10474","5420","5054","52","48","323.05","417495"
"MOREIRASALES","CentroOcid","Goioere","4-Pop>10000<=50000","12606","9933","2673","79","21","357.36","498397"
"MORRETES","Curitiba","Paranagua","4-Pop>10000<=50000","15718","7178","8540","46","54","687.55","175543"
"MUNHOZDEMELLO","NCentral","Astorga","5-Pop<=10000","3672","2974","698","81","19","137.61","108085"
"NOSSASENHORADASGRACAS","NCentral","Astorga","5-Pop<=10000","3836","3182","654","83","17","185.54","189527"
"NOVAALIANCADOIVAI","Noroeste","Paranavai","5-Pop<=10000","1431","1041","390","73","27","132.02","124461"
"NOVAAMERICADACOLINA","NPioneiro","CornProcopio","5-Pop<=10000","3478","2524","954","73","27","129.03","161042"
"NOVAAURORA","Oeste","Cascavel","4-Pop>10000<=50000","11866","9040","2826","76","24","472.22","397039"
"NOVACANTU","CentroOcid","Goioere","5-Pop<=10000","7425","4104","3321","55","45","550.6","372282"
"NOVAESPERANCA","NCentral","Astorga","4-Pop>10000<=50000","26615","24323","2292","91","9","402.33","318517"
"NOVAESPERANCADOSUDOESTE","Sudoeste","FrancBeltrao","5-Pop<=10000","5098","1744","3354","34","66","208.34","184436"
"NOVAFATIMA","NPioneiro","CornProcopio","5-Pop<=10000","8147","6609","1538","81","19","281.83","314182"
"NOVALARANJEIRAS","Centro-Sul","Guarapuava","4-Pop>10000<=50000","11241","2372","8869","21","79","1210.88","340593"
"NOVALONDRINA","Noroeste","Paranavai","4-Pop>10000<=50000","13067","12014","1053","92","8","270.37","375914"
"NOVAOLIMPIA","Noroeste","Umuarama","5-Pop<=10000","5503","4685","818","85","15","135.62","219749"
"NOVAPRATADOIGUACU","Sudoeste","FrancBeltrao","4-Pop>10000<=50000","10377","6067","4310","58","42","351.12","472048"
"NOVASANTABARBARA","NPioneiro","Assai","5-Pop<=10000","3908","3279","629","84","16","79.57","116029"
"NOVASANTAROSA","Oeste","Toledo","5-Pop<=10000","7626","5315","2311","70","30","207.02","246346"
"NOVATEBAS","NCentral","Ivaipora","5-Pop<=10000","7398","2891","4507","39","61","544.19","295611"
"NOVOITACOLOMI","NCentral","Apucarana","5-Pop<=10000","2827","1588","1239","56","44","160.59","334931"
"ORTIGUEIRA","CentroOr","TelemacoBorba","4-Pop>10000<=50000","23380","9587","13793","41","59","2432.26","677722"
"OURIZONA","NCentral","Florai","5-Pop<=10000","3380","3044","336","90","10","175.42","135046"
"OUROVERDEDOOESTE","Oeste","Toledo","5-Pop<=10000","5692","4039","1653","71","29","293.2","236164"
"PALMAS","Centro-Sul","Palmas","4-Pop>10000<=50000","42888","39795","3093","93","7","1576.63","236130"
"PALMEIRA","CentroOr","PontaGrossa","4-Pop>10000<=50000","32123","19375","12748","60","40","1457.27","760197"
"PALMITAL","Centro-Sul","Pitanga","4-Pop>10000<=50000","14865","7399","7466","50","50","817.29","1247970"
"PALOTINA","Oeste","Toledo","4-Pop>10000<=50000","28683","24646","4037","86","14","647.29","311891"
"PARAISODONORTE","Noroeste","Paranavai","4-Pop>10000<=50000","11772","11099","673","94","6","204.92","240377"
"PARANACITY","Noroeste","Paranavai","4-Pop>10000<=50000","10250","9469","781","92","8","348.17","181474"
"PARANAGUA","Curitiba","Paranagua","3-Pop>50000<=250000","140469","135386","5083","96","4","806.23","790066"
"PARANAPOEMA","Noroeste","Paranavai","5-Pop<=10000","2791","2500","291","90","10","175.5","100155"
"PARANAVAI","Noroeste","Paranavai","3-Pop>50000<=250000","81590","77728","3862","95","5","1202.16","607127"
"PATOBRAGADO","Oeste","Toledo","5-Pop<=10000","4822","2993","1829","62","38","136.79","211455"
"PATOBRANCO","Sudoeste","PatoBranco","3-Pop>50000<=250000","72370","68091","4279","94","6","539.03","784778"
"PAULAFREITAS","Sudeste","UniaoVitoria","5-Pop<=10000","5434","2748","2686","51","49","429.02","282470"
"PAULOFRONTIN","Sudeste","UniaoVitoria","5-Pop<=10000","6913","2173","4740","31","69","367.29","193694"
"PEABIRU","CentroOcid","CampoMourao","4-Pop>10000<=50000","13624","11009","2615","81","19","467.22","251127"
"PEROBAL","Noroeste","Umuarama","5-Pop<=10000","5653","3080","2573","54","46","415.8","286126"
"PEROLA","Noroeste","Umuarama","4-Pop>10000<=50000","10208","8070","2138","79","21","235.65","221099"
"PEROLADOESTE","Sudoeste","Capanema","5-Pop<=10000","6761","3187","3574","47","53","206.7","208350"
"PIEN","Curitiba","RioNegro","4-Pop>10000<=50000","11236","4523","6713","40","60","256.94","227550"
"PINHAIS","Curitiba","Curitiba","3-Pop>50000<=250000","117008","117008","0","100","0","61.14","596009"
"PINHALAO","NPioneiro","Ibaiti","5-Pop<=10000","6215","3924","2291","63","37","220.6","254232"
"PINHALDESAOBENTO","Sudoeste","FrancBeltrao","5-Pop<=10000","2625","1166","1459","44","56","98.15","235938"
"PINHAO","Centro-Sul","Guarapuava","4-Pop>10000<=50000","30208","15317","14891","51","49","2001.79","999621"
"PIRAIDOSUL","CentroOr","Jaguariaiva","4-Pop>10000<=50000","23424","16102","7322","69","31","1349.32","406915"
"PIRAQUARA","Curitiba","Curitiba","3-Pop>50000<=250000","93207","45738","47469","49","51","225.23","288038"
"PITANGA","Centro-Sul","Pitanga","4-Pop>10000<=50000","32638","20590","12048","63","37","1665.91","624599"
"PITANGUEIRAS","NCentral","Londrina","5-Pop<=10000","2814","2040","774","72","28","123.42","213927"
"PLANALTINADOPARANA","Noroeste","Paranavai","5-Pop<=10000","4095","2773","1322","68","32","355.63","156633"
"PLANALTO","Sudoeste","Capanema","4-Pop>10000<=50000","13654","6068","7586","44","56","344.69","385545"
"PONTAGROSSA","CentroOr","PontaGrossa","2-Pop>250000<=1000000","311611","304733","6878","98","2","2025.7","1106012"
"PONTALDOPARANA","Curitiba","Paranagua","4-Pop>10000<=50000","20920","20743","177","99","1","202.16","250936"
"PORECATU","NCentral","Porecatu","4-Pop>10000<=50000","14189","11442","2747","81","19","290.44","381354"
"PORTOAMAZONAS","Curitiba","Lapa","5-Pop<=10000","4514","2948","1566","65","35","186.69","143356"
"PORTOBARREIRO","Centro-Sul","Guarapuava","5-Pop<=10000","3663","691","2972","19","81","365.19","213996"
"PORTORICO","Noroeste","Paranavai","5-Pop<=10000","2530","1764","766","70","30","227.03","158894"
"PORTOVITORIA","Sudeste","UniaoVitoria","5-Pop<=10000","4020","2235","1785","56","44","213.15","220089"
"PRADOFERREIRA","NCentral","Porecatu","5-Pop<=10000","3434","3015","419","88","12","152.85","224329"
"PRANCHITA","Sudoeste","Capanema","5-Pop<=10000","5628","3605","2023","64","36","225.54","174430"
"PRESIDENTECASTELOBRANCO","NCentral","Astorga","5-Pop<=10000","4784","4197","587","88","12","155.41","100680"
"PRIMEIRODEMAIO","NCentral","Porecatu","4-Pop>10000<=50000","10832","10083","749","93","7","416.78","216656"
"PRUDENTOPOLIS","Sudeste","Prudentopolis","4-Pop>10000<=50000","48792","22463","26329","46","54","2242.47","777126"
"QUARTOCENTENARIO","CentroOcid","Goioere","5-Pop<=10000","4856","2912","1944","60","40","320.23","190912"
"QUATIGUA","NPioneiro","WenceslauBraz","5-Pop<=10000","7045","6372","673","90","10","112.89","208195"
"QUATROBARRAS","Curitiba","Curitiba","4-Pop>10000<=50000","19851","17941","1910","90","10","181.27","291898"
"QUATROPONTES","Oeste","Toledo","5-Pop<=10000","3803","2437","1366","64","36","114.54","123910"
"QUEDASDOIGUACU","Centro-Sul","Guarapuava","4-Pop>10000<=50000","30605","20987","9618","69","31","827.93","1127267"
"QUERENCIADONORTE","Noroeste","Paranavai","4-Pop>10000<=50000","11729","7622","4107","65","35","1007.97","388699"
"QUINTADOSOL","CentroOcid","CampoMourao","5-Pop<=10000","5088","3811","1277","75","25","326.09","244107"
"QUITANDINHA","Curitiba","RioNegro","4-Pop>10000<=50000","17089","4887","12202","29","71","446.4","357211"
"RAMILANDIA","Oeste","FozdoIguacu","5-Pop<=10000","4134","2043","2091","49","51","240.21","267681"
"RANCHOALEGRE","NPioneiro","Assai","5-Pop<=10000","3955","3470","485","88","12","168.25","122231"
"RANCHOALEGREDOESTE","CentroOcid","Goioere","5-Pop<=10000","2847","2303","544","81","19","239.95","182667"
"REALEZA","Sudoeste","Capanema","4-Pop>10000<=50000","16338","11796","4542","72","28","355.2","393471"
"REBOUCAS","Sudeste","Irati","4-Pop>10000<=50000","14176","7505","6671","53","47","482.07","231009"
"RENASCENCA","Sudoeste","FrancBeltrao","5-Pop<=10000","6812","3485","3327","51","49","424.55","210094"
"RESERVA","CentroOr","TelemacoBorba","4-Pop>10000<=50000","25172","12206","12966","48","52","1633.96","653677"
"RESERVADOIGUACU","Centro-Sul","Guarapuava","5-Pop<=10000","7307","3905","3402","53","47","830.97","333245"
"RIBEIRAOCLARO","NPioneiro","Jacarezinho","4-Pop>10000<=50000","10678","7085","3593","66","34","630.33","308500"
"RIBEIRAODOPINHAL","NPioneiro","CornProcopio","4-Pop>10000<=50000","13524","11078","2446","82","18","374.86","274684"
"RIOAZUL","Sudeste","Irati","4-Pop>10000<=50000","14093","5012","9081","36","64","627.44","512475"
"RIOBOM","NCentral","Faxinal","5-Pop<=10000","3334","2007","1327","60","40","176.9","147752"
"RIOBONITODOIGUACU","Centro-Sul","Guarapuava","4-Pop>10000<=50000","13661","3322","10339","24","76","685.19","799727"
"RIOBRANCODOIVAI","NCentral","Ivaipora","5-Pop<=10000","3898","919","2979","24","76","383.79","279920"
"RIOBRANCODOSUL","Curitiba","Curitiba","4-Pop>10000<=50000","30650","22045","8605","72","28","816.72","352487"
"RIONEGRO","Curitiba","RioNegro","4-Pop>10000<=50000","31274","25710","5564","82","18","603.71","417573"
"ROLANDIA","NCentral","Londrina","3-Pop>50000<=250000","57862","54749","3113","95","5","456.23","442732"
"RONCADOR","CentroOcid","CampoMourao","4-Pop>10000<=50000","11537","7120","4417","62","38","741.06","361480"
"RONDON","Noroeste","Cianorte","5-Pop<=10000","8996","7196","1800","80","20","550.86","371368"
"ROSARIODOIVAI","NCentral","Ivaipora","5-Pop<=10000","5588","2721","2867","49","51","381.34","366170"
"SABAUDIA","NCentral","Apucarana","5-Pop<=10000","6096","5097","999","84","16","190.99","203228"
"SALGADOFILHO","Sudoeste","FrancBeltrao","5-Pop<=10000","4403","2254","2149","51","49","184.25","271131"
"SALTODOITARARE","NPioneiro","WenceslauBraz","5-Pop<=10000","5178","3723","1455","72","28","200.11","223836"
"SALTODOLONTRA","Sudoeste","FrancBeltrao","4-Pop>10000<=50000","13689","7431","6258","54","46","312.2","323466"
"SANTAAMELIA","NPioneiro","CornProcopio","5-Pop<=10000","3803","2886","917","76","24","78.03","123887"
"SANTACECILIADOPAVAO","NPioneiro","Assai","5-Pop<=10000","3646","3057","589","84","16","109.64","158969"
"SANTACRUZDEMONTECASTELO","Noroeste","Paranavai","5-Pop<=10000","8092","5753","2339","71","29","443.06","231523"
"SANTAFE","NCentral","Astorga","4-Pop>10000<=50000","10432","9232","1200","88","12","276.8","144555"
"SANTAHELENA","Oeste","Toledo","4-Pop>10000<=50000","23413","12586","10827","54","46","759.13","838180"
"SANTAINES","NCentral","Astorga","5-Pop<=10000","1818","1192","626","66","34","137.77","141886"
"SANTAISABELDOIVAI","Noroeste","Paranavai","5-Pop<=10000","8760","7062","1698","81","19","348.1","201461"
"SANTAIZABELDOOESTE","Sudoeste","Capanema","4-Pop>10000<=50000","13132","7421","5711","57","43","322.22","307094"
"SANTALUCIA","Oeste","Cascavel","5-Pop<=10000","3925","2536","1389","65","35","117.51","147671"
"SANTAMARIADOOESTE","Centro-Sul","Pitanga","4-Pop>10000<=50000","11500","3211","8289","28","72","845.53","448235"
"SANTAMARIANA","NPioneiro","CornProcopio","4-Pop>10000<=50000","12435","8320","4115","67","33","424.75","168244"
"SANTAMONICA","Noroeste","Paranavai","5-Pop<=10000","3571","1475","2096","41","59","260.05","5253"
"SANTANADOITARARE","NPioneiro","WenceslauBraz","5-Pop<=10000","5249","3456","1793","66","34","251.05","476381"
"SANTATEREZADOOESTE","Oeste","Cascavel","4-Pop>10000<=50000","10332","8035","2297","78","22","327.33","165463"
"SANTATEREZINHADEITAIPU","Oeste","FozdoIguacu","4-Pop>10000<=50000","20841","18837","2004","90","10","267.5","260151"
"SANTOANTONIODAPLATINA","NPioneiro","Jacarezinho","4-Pop>10000<=50000","42707","36944","5763","87","13","720.19","311429"
"SANTOANTONIODOCAIUA","Noroeste","Paranavai","5-Pop<=10000","2727","2123","604","78","22","218.01","137551"
"SANTOANTONIODOPARAISO","NPioneiro","CornProcopio","5-Pop<=10000","2408","1822","586","76","24","164.46","89350"
"SANTOANTONIODOSUDOESTE","Sudoeste","FrancBeltrao","4-Pop>10000<=50000","18893","13711","5182","73","27","324.75","534237"
"SANTOINACIO","NCentral","Astorga","5-Pop<=10000","5269","4200","1069","80","20","308.5","277576"
"SAOCARLOSDOIVAI","Noroeste","Paranavai","5-Pop<=10000","6354","5679","675","89","11","224.44","181666"
"SAOJERONIMODASERRA","NPioneiro","Assai","4-Pop>10000<=50000","11337","5661","5676","50","50","825.47","558941"
"SAOJOAO","Sudoeste","PatoBranco","4-Pop>10000<=50000","10599","6735","3864","64","36","389.05","359358"
"SAOJOAODOCAIUA","Noroeste","Paranavai","5-Pop<=10000","5911","5039","872","85","15","304.2","188120"
"SAOJOAODOIVAI","NCentral","Ivaipora","4-Pop>10000<=50000","11525","8874","2651","77","23","352.64","284435"
"SAOJOAODOTRIUNFO","Sudeste","SMateusdoSul","4-Pop>10000<=50000","13704","4048","9656","30","70","719.75","574218"
"SAOJORGEDOESTE","Sudoeste","FrancBeltrao","5-Pop<=10000","9085","5214","3871","57","43","379.26","466408"
"SAOJORGEDOIVAI","NCentral","Florai","5-Pop<=10000","5517","4781","736","87","13","316.76","127729"
"SAOJORGEDOPATROCINIO","Noroeste","Umuarama","5-Pop<=10000","6041","3539","2502","59","41","410.39","296455"
"SAOJOSEDABOAVISTA","NPioneiro","WenceslauBraz","5-Pop<=10000","6511","3864","2647","59","41","398.95","230270"
"SAOJOSEDASPALMEIRAS","Oeste","Toledo","5-Pop<=10000","3830","2411","1419","63","37","183.29","270905"
"SAOJOSEDOSPINHAIS","Curitiba","Curitiba","2-Pop>250000<=1000000","264210","236895","27315","90","10","944.28","1295339"
"SAOMANOELDOPARANA","Noroeste","Cianorte","5-Pop<=10000","2098","1159","939","55","45","96.19","244450"
"SAOMATEUSDOSUL","Sudeste","SMateusdoSul","4-Pop>10000<=50000","41257","25706","15551","62","38","1344.29","446832"
"SAOMIGUELDOIGUACU","Oeste","FozdoIguacu","4-Pop>10000<=50000","25769","16485","9284","64","36","848.67","387548"
"SAOPEDRODOIGUACU","Oeste","Toledo","5-Pop<=10000","6491","4055","2436","62","38","308.13","181622"
"SAOPEDRODOIVAI","NCentral","Ivaipora","4-Pop>10000<=50000","10167","8044","2123","79","21","322.38","265360"
"SAOPEDRODOPARANA","Noroeste","Paranavai","5-Pop<=10000","2491","1631","860","65","35","266.13","216886"
"SAOSEBASTIAODAAMOREIRA","NPioneiro","Assai","5-Pop<=10000","8626","7593","1033","88","12","226.79","405400"
"SAOTOME","Noroeste","Cianorte","5-Pop<=10000","5349","4446","903","83","17","217.4","277380"
"SAPOPEMA","NPioneiro","Ibaiti","5-Pop<=10000","6736","3552","3184","53","47","676.94","220871"
"SARANDI","NCentral","Maringa","3-Pop>50000<=250000","82847","82146","701","99","1","103.69","304034"
"SAUDADEDOIGUACU","Sudoeste","PatoBranco","5-Pop<=10000","5028","2503","2525","50","50","148.4","373012"
"SENGES","CentroOr","Jaguariaiva","4-Pop>10000<=50000","18414","15107","3307","82","18","1434.11","570811"
"SERRANOPOLISDOIGUACU","Oeste","FozdoIguacu","5-Pop<=10000","4568","2322","2246","51","49","485.88","234252"
"SERTANEJA","NPioneiro","CornProcopio","5-Pop<=10000","5817","5105","712","88","12","444.11","208957"
"SERTANOPOLIS","NCentral","Porecatu","4-Pop>10000<=50000","15638","13711","1927","88","12","503.95","215246"
"SIQUEIRACAMPOS","NPioneiro","WenceslauBraz","4-Pop>10000<=50000","18454","13424","5030","73","27","279.14","487241"
"SULINA","Sudoeste","PatoBranco","5-Pop<=10000","3394","1390","2004","41","59","171.4","235522"
"TAMARANA","NCentral","Londrina","4-Pop>10000<=50000","12262","5858","6404","48","52","469.41","165813"
"TAMBOARA","Noroeste","Paranavai","5-Pop<=10000","4664","3996","668","86","14","194.74","127562"
"TAPEJARA","Noroeste","Cianorte","4-Pop>10000<=50000","14598","13166","1432","90","10","599.33","243316"
"TAPIRA","Noroeste","Umuarama","5-Pop<=10000","5836","3435","2401","59","41","435.03","242947"
"TEIXEIRASOARES","Sudeste","Prudentopolis","4-Pop>10000<=50000","10283","4796","5487","47","53","903.09","305417"
"TELEMACOBORBA","CentroOr","TelemacoBorba","3-Pop>50000<=250000","69872","68440","1432","98","2","1385.54","623576"
"TERRABOA","CentroOcid","CampoMourao","4-Pop>10000<=50000","15776","13051","2725","83","17","325.66","317351"
"TERRARICA","Noroeste","Paranavai","4-Pop>10000<=50000","15221","12370","2851","81","19","700.96","710881"
"TERRAROXA","Oeste","Toledo","4-Pop>10000<=50000","16759","12801","3958","76","24","803.48","319580"
"TIBAGI","CentroOr","TelemacoBorba","4-Pop>10000<=50000","19344","11668","7676","60","40","2950.28","506621"
"TIJUCASDOSUL","Curitiba","RioNegro","4-Pop>10000<=50000","14537","2285","12252","16","84","671.93","370059"
"TOLEDO","Oeste","Toledo","3-Pop>50000<=250000","119313","108259","11054","91","9","1198.61","631190"
"TOMAZINA","NPioneiro","WenceslauBraz","5-Pop<=10000","8791","4119","4672","47","53","594.02","187373"
"TRESBARRASDOPARANA","Oeste","Cascavel","4-Pop>10000<=50000","11824","6095","5729","52","48","506.96","698679"
"TUNASDOPARANA","Curitiba","Curitiba","5-Pop<=10000","6256","2792","3464","45","55","671.71","204420"
"TUNEIRASDOOESTE","Noroeste","Cianorte","5-Pop<=10000","8695","5973","2722","69","31","698.44","336330"
"TUPASSI","Oeste","Toledo","5-Pop<=10000","7997","6286","1711","79","21","310.96","249078"
"TURVO","Centro-Sul","Guarapuava","4-Pop>10000<=50000","13811","5048","8763","37","63","925.67","468973"
"UBIRATA","CentroOcid","Goioere","4-Pop>10000<=50000","21558","18397","3161","85","15","652.76","511904"
"UMUARAMA","Noroeste","Umuarama","3-Pop>50000<=250000","100676","93455","7221","93","7","1227.43","818328"
"UNIAODAVITORIA","Sudeste","UniaoVitoria","3-Pop>50000<=250000","52735","49983","2752","95","5","713.57","416765"
"UNIFLOR","NCentral","Astorga","5-Pop<=10000","2466","1987","479","81","19","95.08","77067"
"URAI","NPioneiro","Assai","4-Pop>10000<=50000","11472","9358","2114","82","18","234.9","201237"
"VENTANIA","CentroOr","TelemacoBorba","5-Pop<=10000","9957","6511","3446","65","35","816.34","320119"
"VERACRUZDOOESTE","Oeste","FozdoIguacu","5-Pop<=10000","8973","6863","2110","76","24","326.3","298885"
"VERE","Sudoeste","FrancBeltrao","5-Pop<=10000","7878","3281","4597","42","58","312.5","298713"
"VIRMOND","Centro-Sul","Guarapuava","5-Pop<=10000","3950","1772","2178","55","45","1045.72","408700"
"VITORINO","Sudoeste","PatoBranco","5-Pop<=10000","6513","3988","2525","61","39","308.47","372517"
"WENCESLAUBRAZ","NPioneiro","WenceslauBraz","4-Pop>10000<=50000","19298","15509","3789","80","20","393.24","534917"
"XAMBRE","Noroeste","Umuarama","5-Pop<=10000","6012","1990","4022","33","67","359.0","270891"
